H3-01	&H3-01;	⿷匚一
H3-02	&H3-02;	&CDP-89D9;
H3-03	&H3-03;	&CDP-88F1;
H3-04	&H3-04;	⿱一八
H5-01	&H5-01;	&CDP-8DDD;
H6-01	&H6-01;	&CDP-8DBF;
H6-02	&H6-02;	&CDP-8DAB;
H6-03	&H6-03;	&CDP-896A;
H7-01	&H7-01;	&CDP-8D61;
H8-01	&H8-01;	&CDP-8CD4;
H9-01	&H9-01;	&CDP-8CC9;
H14-01	&H14-01;	&CDP-8D50;
S2-01	&S2-01;	&CDP-8968;
S4-01	&S4-01;	&CDP-81EF;
S4-02	&S4-02;	&CDP-8DDF;
S5-01	&S5-01;	&CDP-81F0;
S5-02	&S5-02;	&CDP-8BE8;
S7-01	&S7-01;	⿱艹&CDP-8A44;
S7-02	&S7-02;	⿱&CDP-88A1;一
S8-01	&S8-01;	&CDP-89B0;
S9-01	&S9-01;	&CDP-89BD;
S11-01	&S11-01;	&CDP-8D60;
P2-01	&P2-01;	&CDP-8CBD;
P3-01	&P3-01;	&CDP-8CAC;
P4-01	&P4-01;	⿻几𰀪	⿻几⿱丿丿	⿻几二
P4-02	&P4-02;	&CDP-88F0;
P4-03	&P4-03;	&CDP-8B5E;
P4-04	&P4-04;	&CDP-8C66;
P4-05	&P4-05;	&CDP-8964;
P5-01	&P5-01;	&CDP-8C69;
P5-02	&P5-02;	&CDP-8CE4;
P6-01	&P6-01;	&CDP-8C40;
P6-02	&P6-02;	⿱𠂊𫩏
P6-03	&P6-03;	&CDP-8CAF;
P7-01	&P7-01;	⿱丿⿸𠁣二
P7-02	&P7-02;	⿵几氺
P7-03	&P7-03;	&CDP-8CBB;
P8-01	&P8-01;	&CDP-8BBE;
P10-01	&P10-01;	&CDP-8BA8;
P15-01	&P15-01;	⿶&CDP-8B64;同	⿶&CDP-8B64;&CDP-8DE1;	⿶&CDP-8B64;⿵𠔼コ
D4-01	&D4-01;	&CDP-89AE;
D5-02	&D5-02;	&CDP-81DD;
D6-01	&D6-01;	⿱亠⿰丨丨
D6-02	&D6-02;	&CDP-8C42;
D7-01	&D7-01;	&CDP-8C4D;
D7-02	&D7-02;	&CDP-8D74;
D7-03	&D7-03;	&CDP-8D56;
D10-01	&D10-01;	&CDP-8DEB;
Z2-01	&Z2-01;	⿱㇕一	⿱一㇘
Z2-02	&Z2-02;	𠂈
Z2-03	&Z2-03;	&CDP-88B5;
Z2-04	&Z2-04;	&CDP-8A77;
Z2-05	&Z2-05;	&CDP-8C4E;
Z3-01	&Z3-01;	&CDP-8BAB;
Z3-02	&Z3-02;	⿹⺄⿻丿丶
Z3-03	&Z3-03;	⿻⺄⿻丿丶
Z4-01	&Z4-01;	&CDP-8CD5;
Z4-02	&Z4-02;	&CDP-89FA;
Z5-01	&Z5-01;	&CDP-8B7C;
Z5-02	&Z5-02;	&CDP-8C7A;
Z7-01	&Z7-01;	&CDP-8D46;
SAT-H06A	&SAT-H06A;	⿱大干
SAT-H08A	&SAT-H08A;	⿰牙攵
SAT-H08B	&SAT-H08B;	⿰士示
SAT-S04A	&SAT-S04A;	⿺𠃊口
SAT-S07A	&SAT-S07A;	⿰丨臣
SAT-S10A	&SAT-S10A;	⿱日共
SAT-S12A	&SAT-S12A;	⿱𣅽大
SAT-P03A	&SAT-P03A;	⿱个又	⿱亇又
SAT-P06A	&SAT-P06A;	⿱丿犮	⿻叐丶
SAT-P08A	&SAT-P08A;	⿱从开
SAT-P09A	&SAT-P09A;	⿳八𠆢目
SAT-D06A	&SAT-D06A;	⿱丶平
H3-05	&H3-05;	&CDP-8BF1;
H4-03	&H4-03;	⿻丨⿱一丷
H5-03	&H5-03;	⿻丨⿳一丷一
H6-05	&H6-05;	⿱一⿻巾丷
H6-06	&H6-06;	⿱一⿻巾丷
H6-07	&H6-07;	⿵⿱⺊冂八
H6-09	&H6-09;	⿻王&CDP-88E2;
H6-10	&H6-10;	⿻丅𠁣
H7-02	&H7-02;	⿱一⿹&CDP-8BBF;灬
H10-01	&H10-01;	⿳卌一灬
S2-01	&S2-01;	⿰丨丨
S4-05	&S4-05;	⿱⺊&CDP-88E2;
S5-04	&S5-04;	⿱𫩏儿
S5-06	&S5-06;	⿱𫩏人
S5-07	&S5-07;	⿲⿱丨丨丨⿱丨丨
S5-08	&S5-08;	&CDP-86EA;
S6-01	&S6-01;	⿻口土
S7-05	&S7-05;	⿶凵⿰二二
S7-06	&S7-06;	⿶凵⿰&Z2-01;匚
S7-07	&S7-07;	&CDP-8BDC;
S13-01	&S13-01;	⿻丨⿱⿱日日⿱八二
P2-03	&P2-03;	⿱丿丿
P3-06	&P3-06;	⿰𠄌⿱丿㇏	⿰𠄌⿱丿㇂
P4-08	&P4-08;	⿹勹乂
P4-09	&P4-09;	&CDP-8CC8;
P5-03	&P5-03;	⿵几&CDP-8BF1;
P5-04	&P5-04;	⿵&CDP-8BD6;㐅	⿵&CDP-8BD6;人
P5-06	&P5-06;	⿱丿罒
P6-05	&P6-05;	⿱𠂊灬
P7-05	&P7-05;	⿱𠂊罒
P8-04	&P8-04;	⿱甶儿	⿱田儿
P8-05	&P8-05;	⿻𦥑乚
D3-01	&D3-01;	⿲丿丶丶
D3-02	&D3-02;	⿱亠一
D4-04	&D4-04;	⿱⺌一	⿱𭕄一
D5-04	&D5-04;	⿻人⿱丷一
D6-04	&D6-04;	⿱亠灬
D7-04	&D7-04;	⿱丷𤴓	⿱䒑龰	⿱䒑&CDP-8961;
D11-01	&D11-01;	⿳亠口⿱回丨
D14-01	&D14-01;	⿳䒑&CDP-8A6D;灬
Z2-06	&Z2-06;	⿸㇇丶
Z2-07	&Z2-07;	&CDP-8661;
Z6-01	&Z6-01;	⿰彐彐
Z8-01	&Z8-01;	⿰⿱日乚⿱㇕日
Z10-01	&Z10-01;	⑥
